Data Science Concepts / Data Science Tools – W#10: p-value, Decision Trees, RMSE, Overfitting, Bias-Variance in Crowd Wisdom
…
No. The causal claim we can not analyze, the data is observational. Reasons can be outside of the numbers: For example, patients who can afford a medical consultant can afford better medical care, which could lead to a lower complication rate.

Statistics Question: Could the low complication rate of 4.8% be due to chance?

Parameter vs. statistic, Hypotheses

Data

library(tidyverse)
organ_donor <- tibble(outcome = 
 c(rep("complication", 3), 
   rep("no complication", 59)))
organ_donor

# A tibble: 62 × 1
   outcome        
   <chr>          
 1 complication   
 2 complication   
 3 complication   
 4 no complication
 5 no complication
 6 no complication
 7 no complication
 8 no complication
 9 no complication
10 no complication
# ℹ 52 more rows
…
sum(one_sim() == "complication")/62

[1] 0.1129032

sum(one_sim() == "complication")/62

[1] 0.1129032

Oh OK, our fist simulation with 0.0483871 seems to be comparably low.

Automating with tidymodels1

organ_donor

# A tibble: 62 × 1
   outcome        
   <chr>          
 1 complication   
 2 complication   
 3 complication   
 4 no complication
 5 no complication
 6 no complication
 7 no complication
 8 no complication
 9 no complication
10 no complication
# ℹ 52 more rows

library(tidymodels)
set.seed(10)
null_dist <- organ_donor |>
  specify(response = outcome, success = "complication") |>
  hypothesize(null = "point", 
              p = c("complication" = 0.10, "no complication" = 0.90)) |> 
  generate(reps = 100, type = "draw") |> 
  calculate(stat = "prop")
null_dist

Response: outcome (factor)
Null Hypothesis: point
# A tibble: 100 × 2
   replicate   stat
       <int>  <dbl>
 1         1 0.0323
 2         2 0.0645
 3         3 0.0968
 4         4 0.0161
 5         5 0.161 
 6         6 0.0968
 7         7 0.0645
 8         8 0.129 
 9         9 0.161 
10        10 0.0968
# ℹ 90 more rows
…
